\addvspace {10\p@ }
\contentsline {xchapter}{Introduction}{vii}{chapter*.2}
\addvspace {10\p@ }
\contentsline {xchapter}{Relativistic kinematics in a nutshell}{1}{chapter.1}
\contentsline {figure}{\numberline {1.1}{\ignorespaces Two reference frames in rectilinear relative motion.\relax }}{2}{figure.caption.3}
\contentsline {figure}{\numberline {1.2}{\ignorespaces Pictorial representation of the cosmic rays shower.\relax }}{3}{figure.caption.4}
\contentsline {figure}{\numberline {1.3}{\ignorespaces System of two non-interacting particles.\relax }}{5}{figure.caption.7}
\contentsline {figure}{\numberline {1.4}{\ignorespaces Cosmic rays flux as a function of energy.\relax }}{6}{figure.caption.8}
\addvspace {10\p@ }
\contentsline {xchapter}{Interactions of astroparticles}{7}{chapter.2}
\contentsline {figure}{\numberline {2.1}{\ignorespaces Interaction of a particle beam with a single object target. Lines represent different particles in the beam.\relax }}{7}{figure.caption.9}
\contentsline {figure}{\numberline {2.2}{\ignorespaces Interaction of a particle beam with a target composed of many sub-targets.\relax }}{9}{figure.caption.10}
\contentsline {figure}{\numberline {2.3}{\ignorespaces Atmospheric transparency (or opacity) to photons as a function of photon wavelenght: the rainbow depicts the range of the visible light, $400\tmspace +\medmuskip {.2222em}\text { nm}-700\tmspace +\medmuskip {.2222em}\text { nm}$. At very high energy, X-rays or gamma, the atmosphere is very opaque, while in the optical the opacity drops. Indeed astronomy has been performed in the optical over all the mankind the history! On the other hand, near the IR regime, the opacity is rising again, and the IR astronomy has to be performed with satellites, namely instruments beyond the Earth's atmosphere and collect the signal. Radio waves finally can traverse the atmosphere, making radio-astronomy again easier and natural. \relax }}{13}{figure.caption.11}
\contentsline {figure}{\numberline {2.4}{\ignorespaces Typical atmospheric depht from the top of the atmosphere towards ground on which different photons will be absorbed: e.g., gamma rays typically will interact at a height of 20 km by orders of magnitude estimates\relax }}{14}{figure.caption.12}
\contentsline {figure}{\numberline {2.5}{\ignorespaces Measurement of the proton-air cross-section $\sigma _{p,\text {air}}$ at $\sqrt {s}=$ 57 TeV with the Pierre Auger Observatory. The cross section is expressed in mb as a function of energy, and there are a compilation of different models applied on colliders data. The big black bullet referred as "this work" is a measurement performed using results from cosmic rays. The cross section changes appreciably with energy, and ranges from about 250 mb to a factor of two higher, reaching center of mass energies well beyond the LHC typical ones.\relax }}{15}{figure.caption.13}
\contentsline {figure}{\numberline {2.6}{\ignorespaces Feynman diagrams of Bremsstrahlung processes (i.e. the first two diagram, starting from the left) and pair production. $Ze$ is the nucleus whose presence is necessary, as we will see in Sec.(\ref {ex:impossible_vacuum}).\relax }}{16}{figure.caption.14}
\contentsline {figure}{\numberline {2.7}{\ignorespaces Figure lifted from \url {https://arxiv.org/pdf/1711.08119.pdf}, describing an IceCube work. Compilation of muon neutrino charged current cross section measurements, divided by neutrino energy. The blue and green lines are the Standard Model predictions for $\nu _{\mu }$ and $\bar {\nu }_{\mu }$ respectively, with the uncertainties on the deep inelastic cross sections shown by the shaded bands. The red line is for the expected mixture of $\nu _{\mu }$ and $\bar {\nu }_{\mu }$ in the IceCube sample. The black line shows the article's result, assuming that the charged and neutral current cross sections vary in proportion, and that the ratio between the actual cross section and the Standard Model prediction does not depend on energy. The pink band shows the total 1$\sigma $ (statistical plus systematic) uncertainty. The cross section rises linearly with energy up to about 3 TeV, but then the increase moderates to roughly as $E_{\nu }^{0.3}$.\relax }}{18}{figure.caption.17}
\contentsline {figure}{\numberline {2.8}{\ignorespaces Figure lifted from \url {https://arxiv.org/pdf/1010.2647.pdf}, showing the neutrino\IeC {\textendash }nucleon cross-section as a function of the neutrino energy. Charge-current and neutral-current contributions to the cross-section are shown with thin solid and dashed lines. The total cross-section is presented by a thick solid line.\relax }}{19}{figure.caption.18}
\contentsline {figure}{\numberline {2.9}{\ignorespaces Pictorial representation of primary cosmic ray interacting with the Earth atmosphere. The first interactions produce a shower of secondary particles, which can either interact further, contributing to the increase in the number of secondary particles, or decay, if the energy per particle available becomes too low to give rise to further productions. The secondary particle flux is namely a \emph {hadronic shower}, made very abundantly by charged mesons ($\pi ^+,\tmspace +\medmuskip {.2222em}\pi ^-$) as well as neutral pions $\pi ^0$. The neutral pions can produce two photons, giving rise to pairs of $e^+$, $e^-$, in a generation called \emph {electromagnetic shower}. The charged mesons either further interact or they decay, and their decays are shown in the bottom right corner. Remember that also muons and differently flavoured neutrinos, e.g. $\nu _\mu ,\tmspace +\medmuskip {.2222em}\nu _e$, are produced and will possibly reach the ground. The tau neutrinos, $\nu _\tau $ and $\bar {\nu }_\tau $, have a negligible probability of being produced by atmosphere, instead. The pions usually don't reach the Earth, while sufficiently energetic muons usually do (see Exercise (\ref {ex:pions_obs})).\relax }}{21}{figure.caption.19}
\contentsline {figure}{\numberline {2.10}{\ignorespaces Feynman diagrams for the leptonic muon decay and the semileptonic pion decay. Remember that the pions are mesons, that is they are formed by two quarks. In particular $\pi ^+=u\bar {d}$, $\pi ^-=\bar {u}d$ and $\pi ^0=u\bar {u}\tmspace +\medmuskip {.2222em}\text {or}\tmspace +\medmuskip {.2222em}d\bar {d}$. The charged pions have a lifetime of only $26\tmspace +\medmuskip {.2222em}\text {ns}$, while the muon lifetime is $2\tmspace +\medmuskip {.2222em}\mu \text {s}$, much larger than that of the pions. Therefore, the composition of the shower becomes richer and richer in muons while travelling through the atmosphere.\relax }}{21}{figure.caption.20}
\contentsline {figure}{\numberline {2.11}{\ignorespaces Pictorial representation of IceCube detection of neutrinos from all over the sky. Remember that the detector is located at a depht of $1.5\tmspace +\medmuskip {.2222em}\text {km}$.\relax }}{22}{figure.caption.21}
\contentsline {figure}{\numberline {2.12}{\ignorespaces Mean energy loss per unit density (in g cm$^{-2}$) and unit lenght (in $\text {cm}$) in liquid (bubble chamber) hydrogen, gaseous helium, carbon, aluminum, iron, tin, and lead. Radiative effects, relevant for muons and pions, are not included. Figure lifted from \url {http://pdg.lbl.gov/2019/reviews/rpp2019-rev-passage-particles-matter.pdf}. \relax }}{25}{figure.caption.23}
\contentsline {figure}{\numberline {2.13}{\ignorespaces Landau distribution as a function of energy loss, namely $\Delta E$ in text.\relax }}{25}{figure.caption.24}
\contentsline {figure}{\numberline {2.14}{\ignorespaces A positron track (from Anderson, 1933). \relax }}{28}{figure.caption.26}
\contentsline {figure}{\numberline {2.15}{\ignorespaces Fractional energy loss per radiation length in lead as a function of the electron or positron energy. From K.A. Olive et al. (Particle Data Group), Chin. Phys. C 38 (2014) 090001. In light blue a different parametrization is employed for Bremsstrahlung radiation: the difference in the resulting $E_{\text {c}}$ between this model and the green one is very small and negligible to our scope.\relax }}{30}{figure.caption.27}
\contentsline {figure}{\numberline {2.16}{\ignorespaces A recent result by ICARUS (Imaging Cosmic And Rare Underground Signals) collaboration, located originally at the Laboratori Nazionali del Gran Sasso (LNGS) and then down for transport and reassembled at Fermilab. The ICARUS program was initiated by Carlo Rubbia in 1977, who proposed a new type of neutrino detector. These are called Liquid Argon Time Projection Chambers (LAr-TPC), which make use of the reaction $^{40}Ar+\nu \rightarrow ^{40} K+e^-$ in order to study neutrino oscillations, measuring neutrinos of astronomic or solar sources, and CERN Neutrinos to Gran Sasso (CNGS) beam produced 730 km away by the Super Proton Synchrotron from CERN. In figure you can clearly see a lot of scattered arms departing from the principal ionizing particle track, which knocks on several electrons, the so called $\delta $-rays. Figure taken from \url {https://aip.scitation.org/doi/pdf/10.1063/1.4915574}\relax }}{31}{figure.caption.28}
\contentsline {figure}{\numberline {2.17}{\ignorespaces Feynman diagram of Bremsstrahlung, photonuclear interactions and direct pair production by high energy muons, in order from the left.\relax }}{32}{figure.caption.30}
\contentsline {figure}{\numberline {2.18}{\ignorespaces Contributions to the fractional energy loss by muons in iron due to $e^+$, $e^-$ pair production, Bremsstrahlung and photonuclear interactions.\relax }}{32}{figure.caption.31}
\contentsline {figure}{\numberline {2.19}{\ignorespaces The stopping power for positive muons in copper as a function of $\beta \gamma $ is shown over nine orders of magnitude in momentum (corresponding to 12 orders of magnitude in kinetic energy). From K.A. Olive et al. (Particle Data Group), Chin. Phys. C 38 (2014) 090001\relax }}{34}{figure.caption.32}
\contentsline {figure}{\numberline {2.20}{\ignorespaces Photon cross sections in Pb versus energy; total and calculated contributions of the three principal processes. (Adapted from Yao et al. 2006 by permission of Particle Data Group and the Institute of Physics)\relax }}{34}{figure.caption.33}
\contentsline {figure}{\numberline {2.21}{\ignorespaces Scheme of a linear photomultiplier combined with a scintillator. \relax }}{36}{figure.caption.35}
\contentsline {figure}{\numberline {2.22}{\ignorespaces Feynman diagrams for photoelectric effect, Compton scattering+Inverse Compton, pair production, correspondently from the left to the right. The nucleus in the photoelectric effect is regarded as an absence of proper interaction description, in QFT sense; $\text {Z}^+$ is the excited nucleus after the electron ejection; $\text {Z}e$ are the spectator nuclei.\relax }}{37}{figure.caption.36}
\contentsline {figure}{\numberline {2.23}{\ignorespaces Summary of regimes for the three mechanisms for photons interactions with matter. \relax }}{38}{figure.caption.37}
\contentsline {figure}{\numberline {2.24}{\ignorespaces Summary on charged particles detection techniques.\relax }}{39}{figure.caption.38}
\contentsline {figure}{\numberline {2.25}{\ignorespaces Summary of detectors for photons interaction with matter. \relax }}{39}{figure.caption.39}
\addvspace {10\p@ }
\contentsline {xchapter}{Cosmic rays astrophysics}{41}{chapter.3}
\contentsline {figure}{\numberline {3.1}{\ignorespaces Hydrostatic equilibrium of forces on the volume element in the atmosphere. \relax }}{42}{figure.caption.40}
\contentsline {figure}{\numberline {3.4}{\ignorespaces Differential probability $\text {d}P_{I}^{\pi }/\text {d}x$ as a function of the ratio between $x$ and $\lambda _I'$. The maximum is also calculated and shown. \relax }}{48}{figure.caption.43}
\contentsline {figure}{\numberline {3.5}{\ignorespaces Differential probability $\text {d}P_d^\pi /\text {d}x$ for a pion to disappear by decaying within $[x,\tmspace +\medmuskip {.2222em}\text {d}x]$.\relax }}{51}{figure.caption.44}
\contentsline {figure}{\numberline {3.6}{\ignorespaces Differential probability $\text {d}P^\pi /\text {d}x$ for a pion to disappear by either decaying or interacting with atmospheric nuclei within $[x,\tmspace +\medmuskip {.2222em}\text {d}x]$.\relax }}{52}{figure.caption.45}
\contentsline {figure}{\numberline {3.7}{\ignorespaces Toy model evolution of an electromagnetic cascade. At each step of the cascade the number of particles is multiplied by two, through either pair creation or single photon bremsstrahlung. Backward arrows indicate a positron positron, as in Feynman diagrams. The evolution stops when individual particle energies fall below the critical energy $E_c$. The number N of particles at each step $d$ and the average particle energy $E$ in the Heitler\IeC {\textquoteright }s model are reduced by an exponential factor of two.\relax }}{54}{figure.caption.46}
\contentsline {figure}{\numberline {3.8}{\ignorespaces An EGS4 simulation of a 30 GeV electron-induced cascade in iron. The histogram shows fractional energy deposition per radiation length, and the curve is a gamma function fit to the distribution. Circles indicate the number of electrons with total energy greater than 1.5 MeV crossing planes at $x_0/2$ intervals (scale on right) and the squares the number of photons with $E>1.5$ MeV crossing the planes (scaled down to have same area as the electron distribution). $E=1.5\tmspace +\medmuskip {.2222em}\text {MeV}$ is here chosen as the cut off energy.\relax }}{55}{figure.caption.47}
\contentsline {figure}{\numberline {3.9}{\ignorespaces Fitted values of the scale factor $b$ for energy deposition profiles obtained with EGS4 for a variety of elements for incident electrons with $1\tmspace +\medmuskip {.2222em}\text {GeV}<E_0<100\tmspace +\medmuskip {.2222em}\text {GeV}$. Values obtained for incident photons are essentially the same, around 0.5. \relax }}{56}{figure.caption.48}
\contentsline {figure}{\numberline {3.10}{\ignorespaces Shower size N e (t) as a function of the atmospheric depth $t=x/x_0$ (the longitudinal variable in units of radiation lengths) for primary CR photons. The numbers in red, close to the line $s=1.1$, are the values of $\qopname \relax o{log}(E_0/E_c)$ where $E_c$ is the critical energy. The corresponding six energies $E_0$ are in increasing order: 0.035, 2, 100 TeV; 5.7, 320, 2, 300 PeV. The diagonal line connecting the maxima of the different curves is labeled with $s=1$. The different age values are shown by the numbers in black. The dashed diagonal lines indicates the positions in the atmosphere with constant age $s$. The sea level corresponds to $t\simeq 27$. \relax }}{59}{figure.caption.50}
\addvspace {10\p@ }
\contentsline {xchapter}{Summary and OoM}{63}{appendix.A}
\contentsline {figure}{\numberline {A.1}{\ignorespaces Summary of variables fundamental values and order of magnitude used throughout the second chapter. The $\gamma $ and $\beta $ parameters have their usual relativistic meaning. Table lifted from \url {http://pdg.lbl.gov/2019/reviews/rpp2019-rev-passage-particles-matter.pdf}. \relax }}{63}{figure.caption.51}
