\relax 
\providecommand\zref@newlabel[2]{}
\providecommand\hyper@newdestlabel[2]{}
\providecommand{\transparent@use}[1]{}
\providecommand\HyperFirstAtBeginDocument{\AtBeginDocument}
\HyperFirstAtBeginDocument{\ifx\hyper@anchor\@undefined
\global\let\oldcontentsline\contentsline
\gdef\contentsline#1#2#3#4{\oldcontentsline{#1}{#2}{#3}}
\global\let\oldnewlabel\newlabel
\gdef\newlabel#1#2{\newlabelxx{#1}#2}
\gdef\newlabelxx#1#2#3#4#5#6{\oldnewlabel{#1}{{#2}{#3}}}
\AtEndDocument{\ifx\hyper@anchor\@undefined
\let\contentsline\oldcontentsline
\let\newlabel\oldnewlabel
\fi}
\fi}
\global\let\hyper@last\relax 
\gdef\HyperFirstAtBeginDocument#1{#1}
\providecommand\HyField@AuxAddToFields[1]{}
\providecommand\HyField@AuxAddToCoFields[2]{}
\citation{patrignaniCosmicRays}
\@writefile{toc}{\contentsline {paragraph}{Exercise}{2}{section*.1}}
\@writefile{toc}{\contentsline {subsection}{\numberline {0.0.1}Interactions with matter}{2}{subsection.0.0.1}}
\@writefile{tdo}{\contentsline {todo}{\color@fb@x {}{black}{}{orange}{\leavevmode {\color {orange}o}}\ There was no unit time mentioned by the professor, but we need it for the dimensions to work.}{3}{section*.2}}
\pgfsyspdfmark {pgfid1}{17698074}{46840472}
\newlabel{eq:probability-of-interaction}{{22}{3}{Interactions with matter}{equation.0.0.22}{}}
\citation{pierreaugercollaborationMeasurementProtonairCrosssection2012}
\@writefile{toc}{\contentsline {section}{\numberline {0.1}Interactions of astroparticles}{5}{section.0.1}}
\@writefile{tdo}{\contentsline {todo}{\color@fb@x {}{black}{}{orange}{\leavevmode {\color {orange}o}}\ change section name?}{5}{section*.3}}
\pgfsyspdfmark {pgfid2}{17698074}{47338057}
\@writefile{toc}{\contentsline {subsection}{\numberline {0.1.1}Astroparticles and detectors}{5}{subsection.0.1.1}}
