\BOOKMARK [2][-]{subsection.0.0.1}{Interactions with matter}{}% 1
\BOOKMARK [1][-]{section.0.1}{Interactions of astroparticles}{}% 2
\BOOKMARK [2][-]{subsection.0.1.1}{Astroparticles and detectors}{section.0.1}% 3
